{
  "items": [
    {
      "brand_name": "edc by Esprit",
      "id": "ED121C06I-B11",
      "name": "Jumper dress - taupe",
      "price": 28.99,
      "thumbnails": [
        "http://i5.ztat.net/catalog_hd/ED/12/1C/06/IB/11/ED121C06I-B11@10.jpg",
        "http://i5.ztat.net/catalog_hd/ED/12/1C/06/IB/11/ED121C06I-B11@9.jpg"
      ]
    },
    {
      "brand_name": "Lauren Ralph Lauren",
      "id": "L4221C0B2-O11",
      "name": "Jumper dress - chocolate",
      "price": 95,
      "thumbnails": [
        "http://i1.ztat.net/catalog_hd/L4/22/1C/0B/2O/11/L4221C0B2-O11@10.jpg",
        "http://i3.ztat.net/catalog_hd/L4/22/1C/0B/2O/11/L4221C0B2-O11@9.jpg"
      ]
    },
    {
      "brand_name": "Lauren Ralph Lauren",
      "id": "L4221C0A9-A11",
      "name": "Jersey dress - natural sand",
      "price": 199.99,
      "thumbnails": [
        "http://i4.ztat.net/catalog_hd/L4/22/1C/0A/9A/11/L4221C0A9-A11@12.jpg",
        "http://i1.ztat.net/catalog_hd/L4/22/1C/0A/9A/11/L4221C0A9-A11@11.jpg"
      ]
    },
    {
      "brand_name": "Esprit Collection",
      "id": "ES421C0FL-B11",
      "name": "Jumper dress - taupe ",
      "price": 38.49,
      "thumbnails": [
        "http://i2.ztat.net/catalog_hd/ES/42/1C/0F/LB/11/ES421C0FL-B11@12.jpg",
        "http://i3.ztat.net/catalog_hd/ES/42/1C/0F/LB/11/ES421C0FL-B11@11.jpg"
      ]
    },
    {
      "brand_name": "Vila",
      "id": "V1021C0PV-N11",
      "name": "VITINNY - Jersey dress - ivy green",
      "price": 29.99,
      "thumbnails": [
        "http://i6.ztat.net/catalog_hd/V1/02/1C/0P/VN/11/V1021C0PV-N11@10.jpg",
        "http://i2.ztat.net/catalog_hd/V1/02/1C/0P/VN/11/V1021C0PV-N11@9.jpg"
      ]
    }
  ],
  "total_pages": 1
}